arrow==1.2.3
asttokens==2.0.8
attrs==22.1.0
autopep8==1.7.0
backcall==0.2.0
beautifulsoup4==4.11.1
brewer2mpl==1.4.1
cffi==1.15.1
colander==1.8.3
cornice==5.2.0
cryptography==37.0.4
cssutils==2.6.0
cycler==0.11.0
debugpy==1.6.3
decorator==5.1.1
entrypoints==0.4
executing==0.10.0
fabrikApi==1.0
flake8==5.0.4
fonttools==4.36.0
get-docker-secret==1.0.2
greenlet==1.1.2
gunicorn==20.1.0
hupper==1.10.3
importlib-resources==5.9.0
iniconfig==1.1.1
ipykernel==6.15.1
ipython==8.4.0
iso8601==1.0.2
jedi==0.18.1
Jinja2==3.1.2
jsonschema==4.14.0
jupyter-client==7.3.4
jupyter-core==4.11.1
kiwisolver==1.4.4
lxml==4.9.1
MarkupSafe==2.1.1
matplotlib==3.5.3
matplotlib-inline==0.1.6
mccabe==0.7.0
mplcursors==0.5.1
mpld3==0.5.8
nest-asyncio==1.5.5
numpy==1.23.2
packaging==21.3
pandas==1.4.3
parso==0.8.3
PasteDeploy==2.1.1
pexpect==4.8.0
pickleshare==0.7.5
Pillow==9.2.0
pkg_resources==0.0.0
pkgutil_resolve_name==1.3.10
plaster==1.0
plaster-pastedeploy==0.7
pluggy==1.0.0
prettyplotlib==0.1.7
prompt-toolkit==3.0.30
psutil==5.9.1
ptyprocess==0.7.0
pure-eval==0.2.2
py==1.11.0
pycodestyle==2.9.1
pycparser==2.21
pyflakes==2.5.0
Pygments==2.13.0
PyJWT==2.4.0
PyMySQL==1.0.2
pyparsing==3.0.9
pyramid==1.10.8
pyramid-jwt==1.6.1
pyramid-tm==2.5
pyrsistent==0.18.1
pytest==7.1.2
python-dateutil==2.8.2
pytz==2022.2.1
pyzmq==23.2.1
scipy==1.9.0
seaborn==0.11.2
six==1.16.0
soupsieve==2.3.2.post1
SQLAlchemy==1.4.45
SQLAlchemy-Continuum==1.3.13
sqlalchemy-filters==0.12.0
SQLAlchemy-Utils==0.38.3
stack-data==0.4.0
toml==0.10.2
tomli==2.0.1
tornado==6.2
traitlets==5.3.0
transaction==3.0.1
translationstring==1.4
urllib3==1.26.13
venusian==3.0.0
waitress==2.1.2
wcwidth==0.2.5
WebOb==1.8.7
WebTest==3.0.0
zipp==3.8.1
zope.deprecation==4.4.0
zope.interface==5.4.0
zope.sqlalchemy==1.6
